%YAML 1.1
%TAG !u! tag:unity3d.com,2011:
--- !u!90 &9000000
Avatar:
  m_ObjectHideFlags: 0
  m_CorrespondingSourceObject: {fileID: 0}
  m_PrefabInstance: {fileID: 0}
  m_PrefabAsset: {fileID: 0}
  m_Name: Firing RifleAvatar
  m_AvatarSize: 9808
  m_Avatar:
    serializedVersion: 3
    m_AvatarSkeleton:
      data:
        m_Node:
        - m_ParentId: -1
          m_AxesId: -1
        - m_ParentId: 0
          m_AxesId: -1
        - m_ParentId: 0
          m_AxesId: -1
        - m_ParentId: 0
          m_AxesId: -1
        - m_ParentId: 0
          m_AxesId: -1
        - m_ParentId: 4
          m_AxesId: -1
        - m_ParentId: 5
          m_AxesId: -1
        - m_ParentId: 6
          m_AxesId: -1
        - m_ParentId: 7
          m_AxesId: -1
        - m_ParentId: 8
          m_AxesId: -1
        - m_ParentId: 9
          m_AxesId: -1
        - m_ParentId: 7
          m_AxesId: -1
        - m_ParentId: 11
          m_AxesId: -1
        - m_ParentId: 12
          m_AxesId: -1
        - m_ParentId: 13
          m_AxesId: -1
        - m_ParentId: 14
          m_AxesId: -1
        - m_ParentId: 15
          m_AxesId: -1
        - m_ParentId: 16
          m_AxesId: -1
        - m_ParentId: 17
          m_AxesId: -1
        - m_ParentId: 7
          m_AxesId: -1
        - m_ParentId: 19
          m_AxesId: -1
        - m_ParentId: 20
          m_AxesId: -1
        - m_ParentId: 21
          m_AxesId: -1
        - m_ParentId: 22
          m_AxesId: -1
        - m_ParentId: 23
          m_AxesId: -1
        - m_ParentId: 24
          m_AxesId: -1
        - m_ParentId: 25
          m_AxesId: -1
        - m_ParentId: 4
          m_AxesId: -1
        - m_ParentId: 27
          m_AxesId: -1
        - m_ParentId: 28
          m_AxesId: -1
        - m_ParentId: 29
          m_AxesId: -1
        - m_ParentId: 30
          m_AxesId: -1
        - m_ParentId: 4
          m_AxesId: -1
        - m_ParentId: 32
          m_AxesId: -1
        - m_ParentId: 33
          m_AxesId: -1
        - m_ParentId: 34
          m_AxesId: -1
        - m_ParentId: 35
          m_AxesId: -1
        m_ID: 00000000861ecc90f373dbaa33ebb03c57f08b86ae1febdf767dd62d00b76ea41750d1c0fc6004590aecc965e4715a4a4daf0563d087219ee04eecfcaf443a0bee4a87e37f79fccf5c8cf1c54f560b896f68a039897f51bcd7afb66480962d98bcb63b63af6eeb4a9786b0635954895b6797563ad71f9e023d0d75345751bbca0ae139da3db85397c076a7563d04f0ab15660529
        m_AxesArray: []
    m_AvatarSkeletonPose:
      data:
        m_X:
        - t: {x: 0, y: 0, z: 0}
          q: {x: 0, y: 0, z: 0, w: 1}
          s: {x: 1, y: 1, z: 1}
        - t: {x: -0, y: 15, z: 0}
          q: {x: 0, y: -0, z: -0, w: 1}
          s: {x: 1, y: 1, z: 1}
        - t: {x: -4.0762453, y: 5.903862, z: -1.005454}
          q: {x: 0.52327543, y: -0.34203392, z: 0.72694236, w: 0.28416622}
          s: {x: 100.00001, y: 100, z: 100}
        - t: {x: -7.3588915, y: 4.958309, z: 6.925791}
          q: {x: 0.09062847, y: 0.89379627, z: -0.20997298, w: 0.3857799}
          s: {x: 100, y: 100.00001, z: 99.99999}
        - t: {x: 0.0014045644, y: 9.877389, z: 0.0068949363}
          q: {x: 0.00000001746228, y: -0.0014506618, z: 2.533189e-11, w: 0.999999}
          s: {x: 1, y: 1, z: 0.9999999}
        - t: {x: -0, y: 0.9080713, z: -0.06552449}
          q: {x: -0.036008753, y: 0.000000069803896, z: 0.0000000025151798, w: 0.9993515}
          s: {x: 1, y: 1, z: 1.0000002}
        - t: {x: -0, y: 1.0621709, z: 0.0000000038376573}
          q: {x: -0.000000026077032, y: 0.000000023432149, z: -0.0000000012271351, w: 1}
          s: {x: 1, y: 1, z: 1.0000001}
        - t: {x: -0, y: 1.2139096, z: 0.0000000010624971}
          q: {x: 0.000000011175872, y: 0.0000000014662422, z: -0.000000020319854, w: 1}
          s: {x: 1, y: 1.0000002, z: 1}
        - t: {x: -0, y: 1.3656483, z: 0.00000004281036}
          q: {x: 0.03600876, y: -0.000000024944757, z: 0.00000004569754, w: 0.9993515}
          s: {x: 1, y: 0.9999999, z: 1}
        - t: {x: -0, y: 0.8282495, z: 0.028421754}
          q: {x: -0.000000022351742, y: -1.7763568e-15, z: -0.000000029103834, w: 1}
          s: {x: 1, y: 1, z: 1}
        - t: {x: -0, y: 2.0201683, z: 0.06932297}
          q: {x: 0, y: -0, z: -0, w: 1}
          s: {x: 1, y: 1, z: 1}
        - t: {x: -0.5810954, y: 1.180838, z: -0.014602381}
          q: {x: 0.56226367, y: -0.42436945, z: 0.57638764, w: 0.41418275}
          s: {x: 1.0000002, y: 1.0000004, z: 1.0000004}
        - t: {x: -0.0000000010606653, y: 1.247009, z: 0.0000000117980266}
          q: {x: -0.12655352, y: 0.00009252131, z: -0.0007247329, w: 0.9919596}
          s: {x: 1.0000004, y: 1.0000006, z: 1.0000002}
        - t: {x: -0.0000000038794754, y: 3.7713275, z: 0.000000006699056}
          q: {x: -0.043347552, y: 0.00019247123, z: -0.004437493, w: 0.99905026}
          s: {x: 1.0000005, y: 0.9999998, z: 1.0000006}
        - t: {x: -9.256008e-10, y: 2.099938, z: -0.0000000015794398}
          q: {x: 0.35417962, y: 0.60763603, z: -0.34682426, w: 0.62052256}
          s: {x: 1, y: 1, z: 1.0000005}
        - t: {x: -0.0000000017745878, y: 0.4171813, z: -0.0000000018509047}
          q: {x: -0.001619398, y: -0.9983419, z: 0.044826627, w: -0.036076237}
          s: {x: 1.0000004, y: 0.9999998, z: 1.000001}
        - t: {x: 0.0000000012642454, y: 0.515492, z: 0.0000000063226513}
          q: {x: 0.2645945, y: 0.00000014901153, z: 0.037295118, w: 0.96363837}
          s: {x: 0.9999997, y: 1.0000004, z: 1}
        - t: {x: 0.059640333, y: 0.627638, z: -0.4231338}
          q: {x: 0.11820363, y: 0.03245078, z: 0.0647952, w: 0.9903416}
          s: {x: 0.9999998, y: 1, z: 0.9999996}
        - t: {x: 0.11427973, y: 0.2754557, z: -0.34643325}
          q: {x: 0, y: -0, z: -0, w: 1}
          s: {x: 1, y: 1, z: 1}
        - t: {x: 0.5810954, y: 1.1806561, z: -0.012081726}
          q: {x: -0.56355876, y: -0.42341384, z: 0.57524824, w: -0.41498408}
          s: {x: 1.0000001, y: 1.0000001, z: 1}
        - t: {x: 9.753437e-10, y: 1.247009, z: 0.000000011804654}
          q: {x: -0.12671642, y: 0.0002057105, z: -0.0016103385, w: 0.99193764}
          s: {x: 1.0000002, y: 1.0000004, z: 1.0000005}
        - t: {x: 5.0057264e-10, y: 3.771352, z: 0.0000000019758386}
          q: {x: 0.04343746, y: 0.00013885114, z: -0.0031932704, w: -0.9990511}
          s: {x: 1.0000005, y: 1.0000002, z: 1.0000004}
        - t: {x: 0.0000000013399074, y: 2.100041, z: -0.0000000031645049}
          q: {x: 0.3733856, y: -0.7286103, z: 0.27737075, w: 0.5027682}
          s: {x: 1.0000002, y: 1.0000002, z: 1.0000005}
        - t: {x: 0.000000005825361, y: 0.39917132, z: 0.0000000065299295}
          q: {x: 0.00073248113, y: -0.9987724, z: 0.0470263, w: 0.015549712}
          s: {x: 0.9999997, y: 0.9999997, z: 1.0000001}
        - t: {x: 0.000000007367023, y: 0.531544, z: 0.000000015385181}
          q: {x: 0.23099792, y: 0.000000007450576, z: -0.016003342, w: 0.9728226}
          s: {x: 0.9999998, y: 1.0000002, z: 0.99999994}
        - t: {x: -0.025650607, y: 0.63675946, z: -0.3702702}
          q: {x: 0.018428912, y: -0.020436106, z: -0.036421027, w: 0.99895763}
          s: {x: 0.99999994, y: 1, z: 1.0000002}
        - t: {x: -0.08934334, y: 0.38394675, z: -0.26064053}
          q: {x: 0, y: -0, z: -0, w: 1}
          s: {x: 1, y: 1, z: 1}
        - t: {x: -0.7715984, y: -0.5036102, z: -0.044726983}
          q: {x: -0.0003197081, y: 0.0153516345, z: 0.99966526, w: 0.020823264}
          s: {x: 0.99999976, y: 1, z: 1.0000001}
        - t: {x: -0.0000000071876953, y: 4.158122, z: 0.0000000029460363}
          q: {x: -0.020733321, y: -0.00044074806, z: 0.02124836, w: 0.99955916}
          s: {x: 1.0000005, y: 1.0000005, z: 1}
        - t: {x: -2.4283636e-10, y: 4.185666, z: -0.000000002283389}
          q: {x: -0.5501876, y: -0.0022297867, z: 0.001469151, w: -0.8350369}
          s: {x: 1.0000004, y: 1, z: 1.0000001}
        - t: {x: 1.0770677e-10, y: 1.8859441, z: -0.000000032232986}
          q: {x: 0.20233524, y: 0.0007426267, z: 0.0035943387, w: 0.97930944}
          s: {x: 1.0000004, y: 1.0000005, z: 1.0000001}
        - t: {x: -1.3892531e-12, y: 0.7265595, z: 1.19975e-10}
          q: {x: 0, y: -0, z: -0, w: 1}
          s: {x: 1, y: 1, z: 1}
        - t: {x: 0.7715984, y: -0.5036102, z: -0.056983583}
          q: {x: 0.00035246732, y: 0.016921781, z: 0.99964, w: -0.020820634}
          s: {x: 0.9999997, y: 0.9999999, z: 1.0000001}
        - t: {x: 0.000000010116466, y: 4.158543, z: -0.000000009572854}
          q: {x: -0.013804697, y: 0.0002933288, z: -0.021248635, w: 0.9996789}
          s: {x: 1.0000004, y: 1.0000001, z: 0.99999976}
        - t: {x: 5.8304295e-12, y: 4.1855073, z: 0.0000000015316627}
          q: {x: -0.53528136, y: 0.0023878177, z: -0.0015132339, w: -0.8446691}
          s: {x: 1.0000001, y: 1.0000004, z: 1.0000002}
        - t: {x: 5.15584e-12, y: 1.8104974, z: -0.000000004384243}
          q: {x: 0.21140338, y: 0.0083398335, z: -0.0018038714, w: 0.9773617}
          s: {x: 1.0000001, y: 0.9999999, z: 1}
        - t: {x: -3.2464413e-11, y: 0.725128, z: 1.331189e-10}
          q: {x: 0, y: -0, z: -0, w: 1}
          s: {x: 1, y: 1, z: 1}
    m_DefaultPose:
      data:
        m_X:
        - t: {x: 0, y: 0, z: 0}
          q: {x: 0, y: 0, z: 0, w: 1}
          s: {x: 1, y: 1, z: 1}
        - t: {x: -0, y: 15, z: 0}
          q: {x: 0, y: -0, z: -0, w: 1}
          s: {x: 1, y: 1, z: 1}
        - t: {x: -4.0762453, y: 5.903862, z: -1.005454}
          q: {x: 0.52327543, y: -0.34203392, z: 0.72694236, w: 0.28416622}
          s: {x: 100.00001, y: 100, z: 100}
        - t: {x: -7.3588915, y: 4.958309, z: 6.925791}
          q: {x: 0.09062847, y: 0.89379627, z: -0.20997298, w: 0.3857799}
          s: {x: 100, y: 100.00001, z: 99.99999}
        - t: {x: 0.0014045644, y: 9.239451, z: 0.0068949363}
          q: {x: -0.11040263, y: 0.34015927, z: 0.029303862, w: 0.9334046}
          s: {x: 1, y: 1, z: 1}
        - t: {x: -0, y: 0.9080713, z: -0.06552449}
          q: {x: 0.0337116, y: 0.0006105202, z: -0.0006700642, w: 0.9994312}
          s: {x: 1, y: 1, z: 1}
        - t: {x: -0, y: 1.0621709, z: 0.0000000038376573}
          q: {x: 0.14274913, y: -0.0003205452, z: 0.006593671, w: 0.9897369}
          s: {x: 1, y: 1, z: 1}
        - t: {x: -0, y: 1.2139096, z: 0.0000000010624971}
          q: {x: 0.14275315, y: 0.00030052615, z: 0.006506987, w: 0.9897369}
          s: {x: 1, y: 1, z: 1}
        - t: {x: -0, y: 1.3656483, z: 0.00000004281036}
          q: {x: 0.039604574, y: -0.06489944, z: -0.009845793, w: 0.997057}
          s: {x: 1, y: 1, z: 1}
        - t: {x: -0, y: 0.8282495, z: 0.028421754}
          q: {x: -0.040135458, y: -0.19219737, z: -0.09014369, w: 0.97638285}
          s: {x: 1, y: 1, z: 1}
        - t: {x: -0, y: 2.0201683, z: 0.06932297}
          q: {x: 0, y: -0, z: -0, w: 1}
          s: {x: 1, y: 1, z: 1}
        - t: {x: -0.5810954, y: 1.180838, z: -0.014602381}
          q: {x: 0.408614, y: -0.21452722, z: 0.6505613, w: 0.60314405}
          s: {x: 1, y: 1, z: 1}
        - t: {x: -0.0000000010606653, y: 1.247009, z: 0.0000000117980266}
          q: {x: 0.35317165, y: 0.23624912, z: -0.24448517, w: 0.87159806}
          s: {x: 1, y: 1, z: 1}
        - t: {x: -0.0000000038794754, y: 3.7713275, z: 0.000000006699056}
          q: {x: 0.039443374, y: 0.00016278344, z: -0.53471524, w: 0.84411126}
          s: {x: 1, y: 1, z: 1}
        - t: {x: -9.256008e-10, y: 2.099938, z: -0.0000000015794398}
          q: {x: -0.27295792, y: 0.941519, z: 0.11091054, w: -0.16350779}
          s: {x: 1, y: 1, z: 1}
        - t: {x: -0.0000000017745878, y: 0.4171813, z: -0.0000000018509047}
          q: {x: -0.31450656, y: 0.9482764, z: -0.037249696, w: 0.021680469}
          s: {x: 1, y: 1, z: 1}
        - t: {x: 0.0000000012642454, y: 0.515492, z: 0.0000000063226513}
          q: {x: 0.29179332, y: -0.14758751, z: -0.44262898, w: 0.8349576}
          s: {x: 1, y: 1, z: 1}
        - t: {x: 0.059640333, y: 0.627638, z: -0.4231338}
          q: {x: 0.15383127, y: -0.103270754, z: -0.073797084, w: 0.9799108}
          s: {x: 1, y: 1, z: 1}
        - t: {x: 0.11427973, y: 0.2754557, z: -0.34643325}
          q: {x: 0, y: -0, z: -0, w: 1}
          s: {x: 1, y: 1, z: 1}
        - t: {x: 0.5810954, y: 1.1806561, z: -0.012081726}
          q: {x: 0.30051836, y: 0.2731798, z: -0.7096562, w: 0.5757167}
          s: {x: 1, y: 1, z: 1}
        - t: {x: 9.753437e-10, y: 1.247009, z: 0.000000011804654}
          q: {x: 0.42954153, y: 0.20502855, z: 0.49647462, w: 0.72592723}
          s: {x: 1, y: 1, z: 1}
        - t: {x: 5.0057264e-10, y: 3.771352, z: 0.0000000019758386}
          q: {x: 0.05458365, y: -0.000091086236, z: 0.7552699, w: 0.6531371}
          s: {x: 1, y: 1, z: 1}
        - t: {x: 0.0000000013399074, y: 2.100041, z: -0.0000000031645049}
          q: {x: 0.28873107, y: 0.9252698, z: 0.005247951, w: -0.24593227}
          s: {x: 1, y: 1, z: 1}
        - t: {x: 0.000000005825361, y: 0.39917132, z: 0.0000000065299295}
          q: {x: 0.10836062, y: 0.99397045, z: -0.014081003, w: -0.009085515}
          s: {x: 1, y: 1, z: 1}
        - t: {x: 0.000000007367023, y: 0.531544, z: 0.000000015385181}
          q: {x: 0.34011677, y: 0.07140287, z: 0.24135996, w: 0.9060726}
          s: {x: 1, y: 1, z: 1}
        - t: {x: -0.025650607, y: 0.63675946, z: -0.3702702}
          q: {x: 0.11515149, y: 0.1006682, z: 0.13566886, w: 0.97887695}
          s: {x: 1, y: 1, z: 1}
        - t: {x: -0.08934334, y: 0.38394675, z: -0.26064053}
          q: {x: 0, y: -0, z: -0, w: 1}
          s: {x: 1, y: 1, z: 1}
        - t: {x: -0.7715984, y: -0.5036102, z: -0.044726983}
          q: {x: -0.39668742, y: 0.065888636, z: 0.90233773, w: 0.15519138}
          s: {x: 1, y: 1, z: 1}
        - t: {x: -0.0000000071876953, y: 4.158122, z: 0.0000000029460363}
          q: {x: -0.20776841, y: 0.006288265, z: 0.024588749, w: 0.97784877}
          s: {x: 1, y: 1, z: 1}
        - t: {x: -2.4283636e-10, y: 4.185666, z: -0.000000002283389}
          q: {x: 0.545505, y: 0.017071618, z: -0.00009059762, w: 0.8379337}
          s: {x: 1, y: 1, z: 1}
        - t: {x: 1.0770677e-10, y: 1.8859441, z: -0.000000032232986}
          q: {x: 0.20407103, y: 0.00080966897, z: 0.0036128603, w: 0.97894907}
          s: {x: 1, y: 1, z: 1}
        - t: {x: -1.3892531e-12, y: 0.7265595, z: 1.19975e-10}
          q: {x: 0, y: -0, z: -0, w: 1}
          s: {x: 1, y: 1, z: 1}
        - t: {x: 0.7715984, y: -0.5036102, z: -0.056983583}
          q: {x: -0.0457936, y: -0.03665598, z: 0.9967158, w: -0.055829298}
          s: {x: 1, y: 1, z: 1}
        - t: {x: 0.000000010116466, y: 4.158543, z: -0.000000009572854}
          q: {x: -0.28461453, y: -0.0032305662, z: -0.029081196, w: 0.9581954}
          s: {x: 1, y: 1, z: 1}
        - t: {x: 5.8304295e-12, y: 4.1855073, z: 0.0000000015316627}
          q: {x: 0.69255495, y: -0.15063643, z: 0.029144408, w: 0.7048595}
          s: {x: 1, y: 1, z: 1}
        - t: {x: 5.15584e-12, y: 1.8104974, z: -0.000000004384243}
          q: {x: 0.21157818, y: 0.008339155, z: -0.0018026255, w: 0.9773239}
          s: {x: 1, y: 1, z: 1}
        - t: {x: -3.2464413e-11, y: 0.725128, z: 1.331189e-10}
          q: {x: 0, y: -0, z: -0, w: 1}
          s: {x: 1, y: 1, z: 1}
    m_SkeletonNameIDArray: 00000000861ecc90f373dbaa33ebb03c57f08b86987fe9ccbe1dc47d044ccde42b8f79d8e4af9b5fe7d40534ba0b6c602105cc56e070b311f797a79cf91bf3bc434afa25d57afd5276ef99ccc61cf205bc936141b8ca7d3f98d50e125acdaabce09ca32576aca452d539c0cc581b9670fafb42bbebec4a7281de5a2175e30634d3ce15ad676defac84aee3fcd964940f2d59c81a
    m_Human:
      data:
        serializedVersion: 2
        m_RootX:
          t: {x: 0.035991967, y: 10.137747, z: -0.113848835}
          q: {x: -0.030794173, y: -0.0009914046, z: -0.00005880371, w: 0.9995253}
          s: {x: 1, y: 1, z: 1}
        m_Skeleton:
          data:
            m_Node:
            - m_ParentId: -1
              m_AxesId: -1
            - m_ParentId: 0
              m_AxesId: 0
            - m_ParentId: 1
              m_AxesId: 1
            - m_ParentId: 2
              m_AxesId: 2
            - m_ParentId: 3
              m_AxesId: 3
            - m_ParentId: 4
              m_AxesId: 4
            - m_ParentId: 5
              m_AxesId: 5
            - m_ParentId: 4
              m_AxesId: 6
            - m_ParentId: 7
              m_AxesId: 7
            - m_ParentId: 8
              m_AxesId: 8
            - m_ParentId: 9
              m_AxesId: 9
            - m_ParentId: 10
              m_AxesId: 10
            - m_ParentId: 11
              m_AxesId: 11
            - m_ParentId: 12
              m_AxesId: 12
            - m_ParentId: 4
              m_AxesId: 13
            - m_ParentId: 14
              m_AxesId: 14
            - m_ParentId: 15
              m_AxesId: 15
            - m_ParentId: 16
              m_AxesId: 16
            - m_ParentId: 17
              m_AxesId: 17
            - m_ParentId: 18
              m_AxesId: 18
            - m_ParentId: 19
              m_AxesId: 19
            - m_ParentId: 1
              m_AxesId: 20
            - m_ParentId: 21
              m_AxesId: 21
            - m_ParentId: 22
              m_AxesId: 22
            - m_ParentId: 23
              m_AxesId: 23
            - m_ParentId: 1
              m_AxesId: 24
            - m_ParentId: 25
              m_AxesId: 25
            - m_ParentId: 26
              m_AxesId: 26
            - m_ParentId: 27
              m_AxesId: 27
            m_ID: 0000000057f08b86ae1febdf767dd62d00b76ea41750d1c0fc600459e4715a4a4daf0563d087219ee04eecfcaf443a0bee4a87e37f79fccf4f560b896f68a039897f51bcd7afb66480962d98bcb63b63af6eeb4a5954895b6797563ad71f9e023d0d75340ae139da3db85397c076a7563d04f0ab
            m_AxesArray:
            - m_PreQ: {x: 0.51773405, y: 0.4816212, z: -0.5176259, w: -0.4817218}
              m_PostQ: {x: 0.5169826, y: 0.48092186, z: -0.51837647, w: -0.4824199}
              m_Sgn: {x: 1, y: 1, z: 1}
              m_Limit:
                m_Min: {x: -0.6981317, y: -0.6981317, z: -0.6981317}
                m_Max: {x: 0.6981317, y: 0.6981317, z: 0.6981317}
              m_Length: 0.9104325
              m_Type: 1
            - m_PreQ: {x: 0.5169826, y: 0.48092186, z: -0.5183765, w: -0.4824199}
              m_PostQ: {x: 0.49927607, y: 0.4992761, z: -0.5007229, w: -0.5007229}
              m_Sgn: {x: 1, y: 1, z: 1}
              m_Limit:
                m_Min: {x: -0.6981317, y: -0.6981317, z: -0.6981317}
                m_Max: {x: 0.6981317, y: 0.6981317, z: 0.6981317}
              m_Length: 1.0621712
              m_Type: 1
            - m_PreQ: {x: 0.49927607, y: 0.4992761, z: -0.5007229, w: -0.5007229}
              m_PostQ: {x: 0.49927607, y: 0.4992761, z: -0.5007229, w: -0.5007229}
              m_Sgn: {x: 1, y: 1, z: 1}
              m_Limit:
                m_Min: {x: -0.6981317, y: -0.6981317, z: -0.6981317}
                m_Max: {x: 0.6981317, y: 0.6981317, z: 0.6981317}
              m_Length: 1.21391
              m_Type: 1
            - m_PreQ: {x: 0.49927607, y: 0.49927607, z: -0.5007228, w: -0.5007229}
              m_PostQ: {x: 0.49927607, y: 0.49927607, z: -0.5007228, w: -0.5007229}
              m_Sgn: {x: 1, y: 1, z: 1}
              m_Limit:
                m_Min: {x: -0.34906584, y: -0.34906584, z: -0.34906584}
                m_Max: {x: 0.34906584, y: 0.34906584, z: 0.34906584}
              m_Length: 1.3656487
              m_Type: 1
            - m_PreQ: {x: 0.47195935, y: 0.5251789, z: -0.4734841, w: -0.52654946}
              m_PostQ: {x: 0.49061367, y: 0.5077887, z: -0.49208808, w: -0.5092134}
              m_Sgn: {x: 1, y: 1, z: 1}
              m_Limit:
                m_Min: {x: -0.6981317, y: -0.6981317, z: -0.6981317}
                m_Max: {x: 0.6981317, y: 0.6981317, z: 0.6981317}
              m_Length: 0.82873744
              m_Type: 1
            - m_PreQ: {x: -0.49927422, y: -0.4992742, z: 0.5007248, w: 0.5007248}
              m_PostQ: {x: -0.49927422, y: -0.49927422, z: 0.5007248, w: 0.5007248}
              m_Sgn: {x: 1, y: 1, z: 1}
              m_Limit:
                m_Min: {x: -0.6981317, y: -0.6981317, z: -0.6981317}
                m_Max: {x: 0.6981317, y: 0.6981317, z: 0.6981317}
              m_Length: 0.82873744
              m_Type: 1
            - m_PreQ: {x: -0.006356735, y: -0.036177363, z: 0.9879416, w: -0.15040693}
              m_PostQ: {x: 0.4803355, y: 0.4803354, z: 0.5189199, w: 0.5189199}
              m_Sgn: {x: 1, y: 1, z: -1}
              m_Limit:
                m_Min: {x: 0, y: -0.2617994, z: -0.2617994}
                m_Max: {x: 0, y: 0.2617994, z: 0.5235988}
              m_Length: 1.24701
              m_Type: 1
            - m_PreQ: {x: 0.65455556, y: 0.20876215, z: 0.5130725, w: 0.5145214}
              m_PostQ: {x: 0.48119107, y: 0.48119092, z: 0.5181268, w: 0.51812655}
              m_Sgn: {x: 1, y: 1, z: -1}
              m_Limit:
                m_Min: {x: -1.5707964, y: -1.7453293, z: -1.0471976}
                m_Max: {x: 1.5707964, y: 1.7453293, z: 1.7453293}
              m_Length: 3.771333
              m_Type: 1
            - m_PreQ: {x: 0.9958869, y: 0.084442586, z: 0.015154455, w: 0.029141925}
              m_PostQ: {x: 0.7066335, y: 0.7066335, z: 0.025866887, w: 0.025866618}
              m_Sgn: {x: 1, y: 1, z: -1}
              m_Limit:
                m_Min: {x: -1.5707964, y: 0, z: -1.3962634}
                m_Max: {x: 1.5707964, y: 0, z: 1.3962634}
              m_Length: 2.0999408
              m_Type: 1
            - m_PreQ: {x: 0.48157313, y: 0.48157293, z: 0.51777166, w: 0.5177716}
              m_PostQ: {x: -0.366195, y: 0.33461565, z: 0.6229226, w: 0.60489756}
              m_Sgn: {x: 1, y: 1, z: -1}
              m_Limit:
                m_Min: {x: 0, y: -0.6981317, z: -1.3962634}
                m_Max: {x: 0, y: 0.6981317, z: 1.3962634}
              m_Length: 0.5249852
              m_Type: 1
            - m_PreQ: {x: 0.15657866, y: 0.12072056, z: 0.79509455, w: 0.57335377}
              m_PostQ: {x: 0.7070635, y: 0.7070628, z: 0.007854335, w: 0.007854182}
              m_Sgn: {x: -1, y: -1, z: -1}
              m_Limit:
                m_Min: {x: 0, y: -0.34906584, z: -0.87266463}
                m_Max: {x: 0, y: 0.34906584, z: 0.87266463}
              m_Length: 0.51549274
              m_Type: 1
            - m_PreQ: {x: 0.802676, y: 0.54109246, z: -0.19394697, w: -0.15910713}
              m_PostQ: {x: 0.7035239, y: 0.6479697, z: -0.20214239, w: 0.21054175}
              m_Sgn: {x: -1, y: 1, z: -1}
              m_Limit:
                m_Min: {x: 0, y: 0, z: -0.7853982}
                m_Max: {x: 0, y: 0, z: 0.7853982}
              m_Length: 0.7592967
              m_Type: 1
            - m_PreQ: {x: 0.8357683, y: 0.4401642, z: -0.32413077, w: 0.051828723}
              m_PostQ: {x: 0.72038716, y: 0.5654001, z: -0.2675946, w: 0.29959658}
              m_Sgn: {x: -1, y: 1, z: -1}
              m_Limit:
                m_Min: {x: 0, y: 0, z: -0.7853982}
                m_Max: {x: 0, y: 0, z: 0.7853982}
              m_Length: 0.42710435
              m_Type: 1
            - m_PreQ: {x: 0.03501938, y: 0.0044845585, z: -0.15047431, w: 0.98798335}
              m_PostQ: {x: 0.48112097, y: 0.48112103, z: -0.51819164, w: -0.5181917}
              m_Sgn: {x: 1, y: 1, z: 1}
              m_Limit:
                m_Min: {x: 0, y: -0.2617994, z: -0.2617994}
                m_Max: {x: 0, y: 0.2617994, z: 0.5235988}
              m_Length: 1.24701
              m_Type: 1
            - m_PreQ: {x: 0.21145459, y: 0.6555452, z: -0.5125647, w: -0.51266474}
              m_PostQ: {x: 0.48163453, y: 0.4816347, z: -0.5177142, w: -0.5177144}
              m_Sgn: {x: -1, y: 1, z: 1}
              m_Limit:
                m_Min: {x: -1.5707964, y: -1.7453293, z: -1.0471976}
                m_Max: {x: 1.5707964, y: 1.7453293, z: 1.7453293}
              m_Length: 3.7713554
              m_Type: 1
            - m_PreQ: {x: 0.08563917, y: 0.99579597, z: -0.029142456, w: -0.014405395}
              m_PostQ: {x: -0.70665354, y: -0.70665354, z: 0.025313929, w: 0.025314027}
              m_Sgn: {x: -1, y: 1, z: 1}
              m_Limit:
                m_Min: {x: -1.5707964, y: 0, z: -1.3962634}
                m_Max: {x: 1.5707964, y: 0, z: 1.3962634}
              m_Length: 2.1000438
              m_Type: 1
            - m_PreQ: {x: -0.4819472, y: -0.48194727, z: 0.5174234, w: 0.51742333}
              m_PostQ: {x: -0.1921843, y: 0.46156868, z: 0.64772964, w: 0.5748617}
              m_Sgn: {x: 1, y: 1, z: 1}
              m_Limit:
                m_Min: {x: 0, y: -0.6981317, z: -1.3962634}
                m_Max: {x: 0, y: 0.6981317, z: 1.3962634}
              m_Length: 0.52501094
              m_Type: 1
            - m_PreQ: {x: 0.01616299, y: -0.00237561, z: -0.558763, w: -0.82916653}
              m_PostQ: {x: 0.69114846, y: 0.6911494, z: -0.1493761, w: -0.14937583}
              m_Sgn: {x: 1, y: -1, z: 1}
              m_Limit:
                m_Min: {x: 0, y: -0.34906584, z: -0.87266463}
                m_Max: {x: 0, y: 0.34906584, z: 0.87266463}
              m_Length: 0.53154445
              m_Type: 1
            - m_PreQ: {x: -0.56027794, y: -0.8278718, z: -0.025867261, w: -0.0069317394}
              m_PostQ: {x: 0.6940862, y: 0.63638896, z: -0.33527672, w: 0.029036302}
              m_Sgn: {x: 1, y: 1, z: 1}
              m_Limit:
                m_Min: {x: 0, y: 0, z: -0.7853982}
                m_Max: {x: 0, y: 0, z: 0.7853982}
              m_Length: 0.7370364
              m_Type: 1
            - m_PreQ: {x: -0.53020114, y: -0.82031405, z: 0.16596144, w: -0.13575247}
              m_PostQ: {x: 0.6627978, y: 0.6554195, z: -0.35978195, w: 0.04100303}
              m_Sgn: {x: 1, y: 1, z: 1}
              m_Limit:
                m_Min: {x: 0, y: 0, z: -0.7853982}
                m_Max: {x: 0, y: 0, z: 0.7853982}
              m_Length: 0.41458297
              m_Type: 1
            - m_PreQ: {x: 0.605612, y: -0.35171208, z: 0.62960416, w: -0.3363503}
              m_PostQ: {x: -0.5007251, y: -0.5007251, z: 0.4992739, w: 0.4992739}
              m_Sgn: {x: 1, y: 1, z: 1}
              m_Limit:
                m_Min: {x: -1.0471976, y: -1.0471976, z: -1.5707964}
                m_Max: {x: 1.0471976, y: 1.0471976, z: 0.87266463}
              m_Length: 4.1581235
              m_Type: 1
            - m_PreQ: {x: 0.70511264, y: 0.061867423, z: -0.70565534, w: -0.032239754}
              m_PostQ: {x: 0.500716, y: 0.50071585, z: -0.49928313, w: -0.49928305}
              m_Sgn: {x: 1, y: 1, z: -1}
              m_Limit:
                m_Min: {x: -1.5707964, y: 0, z: -1.3962634}
                m_Max: {x: 1.5707964, y: 0, z: 1.3962634}
              m_Length: 4.185669
              m_Type: 1
            - m_PreQ: {x: 0.49823555, y: 0.50318396, z: -0.49636558, w: -0.50218374}
              m_PostQ: {x: -0.69270784, y: -0.14893477, z: 0.69095594, w: 0.14336763}
              m_Sgn: {x: 1, y: 1, z: 1}
              m_Limit:
                m_Min: {x: 0, y: -0.5235988, z: -0.87266463}
                m_Max: {x: 0, y: 0.5235988, z: 0.87266463}
              m_Length: 1.0357962
              m_Type: 1
            - m_PreQ: {x: 0.38450557, y: 0.5951311, z: -0.38720334, w: -0.58995587}
              m_PostQ: {x: 0.49834552, y: 0.5035287, z: -0.49720195, w: -0.50090003}
              m_Sgn: {x: 1, y: 1, z: 1}
              m_Limit:
                m_Min: {x: 0, y: 0, z: -0.87266463}
                m_Max: {x: 0, y: 0, z: 0.87266463}
              m_Length: 0.47148642
              m_Type: 1
            - m_PreQ: {x: 0.63189477, y: -0.3363779, z: 0.60441136, w: -0.34963697}
              m_PostQ: {x: -0.500725, y: -0.500725, z: 0.49927396, w: 0.49927393}
              m_Sgn: {x: -1, y: -1, z: 1}
              m_Limit:
                m_Min: {x: -1.0471976, y: -1.0471976, z: -1.5707964}
                m_Max: {x: 1.0471976, y: 1.0471976, z: 0.87266463}
              m_Length: 4.1585445
              m_Type: 1
            - m_PreQ: {x: -0.7074532, y: -0.037300088, z: 0.70263606, w: 0.06649502}
              m_PostQ: {x: -0.5007306, y: -0.5007307, z: 0.4992683, w: 0.49926835}
              m_Sgn: {x: -1, y: 1, z: -1}
              m_Limit:
                m_Min: {x: -1.5707964, y: 0, z: -1.3962634}
                m_Max: {x: 1.5707964, y: 0, z: 1.3962634}
              m_Length: 4.18551
              m_Type: 1
            - m_PreQ: {x: 0.5020718, y: 0.49938586, z: -0.5010396, w: -0.49749076}
              m_PostQ: {x: -0.68994135, y: -0.15167096, z: 0.6909706, w: 0.15341601}
              m_Sgn: {x: 1, y: -1, z: 1}
              m_Limit:
                m_Min: {x: 0, y: -0.5235988, z: -0.87266463}
                m_Max: {x: 0, y: 0.5235988, z: 0.87266463}
              m_Length: 1.0357938
              m_Type: 1
            - m_PreQ: {x: 0.38061464, y: 0.5951098, z: -0.38010854, w: -0.5970715}
              m_PostQ: {x: 0.50031763, y: 0.50694734, z: -0.4952145, w: -0.4974428}
              m_Sgn: {x: 1, y: 1, z: 1}
              m_Limit:
                m_Min: {x: 0, y: 0, z: -0.87266463}
                m_Max: {x: 0, y: 0, z: 0.87266463}
              m_Length: 0.45262477
              m_Type: 1
        m_SkeletonPose:
          data:
            m_X:
            - t: {x: 0, y: 0, z: 0}
              q: {x: 0, y: 0, z: 0, w: 1}
              s: {x: 1, y: 1, z: 1}
            - t: {x: 0.0014045644, y: 9.877389, z: 0.0068949363}
              q: {x: 0.00000001746228, y: -0.0014506618, z: 2.533189e-11, w: 0.999999}
              s: {x: 1, y: 1, z: 0.9999999}
            - t: {x: -5.820766e-11, y: 0.9080715, z: -0.06552449}
              q: {x: -0.036008753, y: 0.00000006984919, z: 0.000000002513842, w: 0.99935156}
              s: {x: 1, y: 1, z: 1.0000002}
            - t: {x: -8.731149e-11, y: 1.0621712, z: 0.0000000372529}
              q: {x: -0.000000026077032, y: 0.000000023515895, z: -0.0000000012259989, w: 1.0000001}
              s: {x: 1, y: 1, z: 1.0000001}
            - t: {x: 2.910383e-11, y: 1.21391, z: 0.000000022351736}
              q: {x: 0.000000011175871, y: 0.0000000013969839, z: -0.00000002032175, w: 1.0000001}
              s: {x: 1, y: 1.0000002, z: 1}
            - t: {x: 0, y: 1.3656484, z: 0.00000005215405}
              q: {x: 0.036008764, y: -0.000000025029294, z: 0.000000045693014, w: 0.9993516}
              s: {x: 1, y: 0.9999999, z: 1}
            - t: {x: -5.820766e-11, y: 0.8282498, z: 0.028421763}
              q: {x: -0.000000022351745, y: -0, z: -0.00000002910384, w: 1.0000002}
              s: {x: 1, y: 1, z: 1}
            - t: {x: -0.5810954, y: 1.1808382, z: -0.014602367}
              q: {x: 0.5622637, y: -0.42436945, z: 0.57638776, w: 0.41418284}
              s: {x: 1.0000002, y: 1.0000004, z: 1.0000004}
            - t: {x: 0.00000013411042, y: 1.2470093, z: 0.00000008940692}
              q: {x: -0.12655348, y: 0.00009255111, z: -0.0007247329, w: 0.9919597}
              s: {x: 1.0000004, y: 1.0000006, z: 1.0000002}
            - t: {x: 0.00000078976115, y: 3.7713296, z: 0.0000013709058}
              q: {x: -0.043347612, y: 0.0001924783, z: -0.004437506, w: 0.9990505}
              s: {x: 1.0000005, y: 0.9999998, z: 1.0000006}
            - t: {x: 0.0000008232883, y: 2.0999398, z: 0.0000007823099}
              q: {x: 0.35417974, y: 0.60763633, z: -0.34682438, w: 0.62052286}
              s: {x: 1, y: 1, z: 1.0000005}
            - t: {x: 0.0000002197919, y: 0.41718152, z: 0}
              q: {x: -0.001619421, y: -0.9983424, z: 0.044826657, w: -0.036076248}
              s: {x: 1.0000004, y: 0.9999998, z: 1.000001}
            - t: {x: 0.00000066310076, y: 0.5154927, z: -0.000000119208956}
              q: {x: 0.26459467, y: 0.00000014156103, z: 0.037295133, w: 0.963639}
              s: {x: 0.9999997, y: 1.0000004, z: 1}
            - t: {x: 0.059641115, y: 0.62763864, z: -0.42313546}
              q: {x: 0.11820372, y: 0.032450803, z: 0.064795256, w: 0.9903424}
              s: {x: 0.9999998, y: 1, z: 0.9999996}
            - t: {x: 0.5810954, y: 1.1806566, z: -0.01208171}
              q: {x: -0.5635588, y: -0.4234139, z: 0.57524836, w: -0.4149841}
              s: {x: 1.0000001, y: 1.0000001, z: 1}
            - t: {x: -0.00000027939674, y: 1.24701, z: 0.00000017881389}
              q: {x: -0.12671645, y: 0.00020577013, z: -0.0016103089, w: 0.9919379}
              s: {x: 1.0000002, y: 1.0000004, z: 1.0000005}
            - t: {x: -0.00000089406933, y: 3.7713535, z: 0.0000013858071}
              q: {x: 0.043437496, y: 0.00013889372, z: -0.0031933188, w: -0.99905133}
              s: {x: 1.0000005, y: 1.0000002, z: 1.0000004}
            - t: {x: -0.0000004991885, y: 2.1000426, z: 0.0000003017482}
              q: {x: 0.37338573, y: -0.7286105, z: 0.2773709, w: 0.5027684}
              s: {x: 1.0000002, y: 1.0000002, z: 1.0000005}
            - t: {x: 0.000000059604584, y: 0.39917168, z: -0.00000017881366}
              q: {x: 0.0007324815, y: -0.9987729, z: 0.047026306, w: 0.015549719}
              s: {x: 0.9999997, y: 0.9999997, z: 1.0000001}
            - t: {x: -0.000000983476, y: 0.5315444, z: -0.00000029802274}
              q: {x: 0.23099805, y: -0, z: -0.0160034, w: 0.9728232}
              s: {x: 0.9999998, y: 1.0000002, z: 0.99999994}
            - t: {x: -0.025651086, y: 0.63676023, z: -0.37027135}
              q: {x: 0.018428907, y: -0.020436138, z: -0.03642103, w: 0.99895823}
              s: {x: 0.99999994, y: 1, z: 1.0000002}
            - t: {x: -0.77159846, y: -0.5036106, z: -0.04472698}
              q: {x: -0.00031970828, y: 0.015351635, z: 0.9996653, w: 0.020823266}
              s: {x: 0.99999976, y: 1, z: 1.0000001}
            - t: {x: -0.00000002980233, y: 4.158124, z: -0.000000044703484}
              q: {x: -0.020733321, y: -0.000440748, z: 0.021248361, w: 0.9995592}
              s: {x: 1.0000005, y: 1.0000005, z: 1}
            - t: {x: -0.000000028405331, y: 4.1856685, z: 0.0000000037252903}
              q: {x: -0.5501877, y: -0.002229787, z: 0.0014691511, w: -0.83503693}
              s: {x: 1.0000004, y: 1, z: 1.0000001}
            - t: {x: 0.000000010244543, y: 1.8859454, z: -0.0000005960464}
              q: {x: 0.20233534, y: 0.00074262696, z: 0.0035943394, w: 0.9793096}
              s: {x: 1.0000004, y: 1.0000005, z: 1.0000001}
            - t: {x: 0.77159846, y: -0.5036106, z: -0.05698358}
              q: {x: 0.0003524674, y: 0.016921783, z: 0.9996401, w: -0.020820636}
              s: {x: 0.9999997, y: 0.9999999, z: 1.0000001}
            - t: {x: 0.000000044703498, y: 4.1585464, z: -0.00000008940697}
              q: {x: -0.013804701, y: 0.00029332872, z: -0.021248642, w: 0.99967915}
              s: {x: 1.0000004, y: 1.0000001, z: 0.99999976}
            - t: {x: 0.0000000016298145, y: 4.1855135, z: -0.00000001303852}
              q: {x: -0.5352816, y: 0.0023878186, z: -0.0015132345, w: -0.84466934}
              s: {x: 1.0000001, y: 1.0000004, z: 1.0000002}
            - t: {x: 0.000000013038514, y: 1.8104993, z: -0.0000014305115}
              q: {x: 0.21140344, y: 0.008339837, z: -0.0018038722, w: 0.97736204}
              s: {x: 1.0000001, y: 0.9999999, z: 1}
        m_LeftHand:
          data:
            m_HandBoneIndex: ffffffffffffffffffffffff0b0000000c0000000d000000ffffffffffffffffffffffffffffffffffffffffffffffffffffffffffffffffffffffff
        m_RightHand:
          data:
            m_HandBoneIndex: ffffffffffffffffffffffff120000001300000014000000ffffffffffffffffffffffffffffffffffffffffffffffffffffffffffffffffffffffff
        m_HumanBoneIndex: 010000001500000019000000160000001a000000170000001b0000000200000003000000040000000500000006000000070000000e000000080000000f00000009000000100000000a00000011000000180000001c000000ffffffffffffffffffffffff
        m_HumanBoneMass:
        - 0.14545456
        - 0.12121213
        - 0.12121213
        - 0.048484854
        - 0.048484854
        - 0.009696971
        - 0.009696971
        - 0.030303033
        - 0.14545456
        - 0.14545456
        - 0.012121214
        - 0.048484854
        - 0.006060607
        - 0.006060607
        - 0.024242427
        - 0.024242427
        - 0.01818182
        - 0.01818182
        - 0.006060607
        - 0.006060607
        - 0.0024242427
        - 0.0024242427
        - 0
        - 0
        - 0
        m_Scale: 10.137747
        m_ArmTwist: 0.5
        m_ForeArmTwist: 0.5
        m_UpperLegTwist: 0.5
        m_LegTwist: 0.5
        m_ArmStretch: 0.05
        m_LegStretch: 0.05
        m_FeetSpacing: 0
        m_HasLeftHand: 1
        m_HasRightHand: 1
        m_HasTDoF: 0
    m_HumanSkeletonIndexArray: 000000000400000005000000060000000700000008000000090000000b0000000c0000000d0000000e0000000f0000001000000011000000130000001400000015000000160000001700000018000000190000001b0000001c0000001d0000001e00000020000000210000002200000023000000
    m_HumanSkeletonReverseIndexArray: 00000000ffffffffffffffffffffffff010000000200000003000000040000000500000006000000ffffffff0700000008000000090000000a0000000b0000000c0000000d000000ffffffff0e0000000f0000001000000011000000120000001300000014000000ffffffff15000000160000001700000018000000ffffffff190000001a0000001b0000001c000000ffffffff
    m_RootMotionBoneIndex: -1
    m_RootMotionBoneX:
      t: {x: 0, y: 0, z: 0}
      q: {x: 0, y: 0, z: 0, w: 1}
      s: {x: 1, y: 1, z: 1}
    m_RootMotionSkeleton:
      data:
        m_Node: []
        m_ID: 
        m_AxesArray: []
    m_RootMotionSkeletonPose:
      data:
        m_X: []
    m_RootMotionSkeletonIndexArray: 
  m_TOS:
    2884633661: mixamorig:Hips/mixamorig:RightUpLeg/mixamorig:RightLeg/mixamorig:RightFoot/mixamorig:RightToeBase
    3320941660: mixamorig:Hips/mixamorig:Spine/mixamorig:Spine1/mixamorig:Spine2/mixamorig:LeftShoulder/mixamorig:LeftArm/mixamorig:LeftForeArm/mixamorig:LeftHand/mixamorig:LeftHandIndex1/mixamorig:LeftHandIndex2/mixamorig:LeftHandIndex3/mixamorig:LeftHandIndex4
    2652997584: mixamorig:Hips/mixamorig:Spine/mixamorig:Spine1/mixamorig:Spine2/mixamorig:LeftShoulder/mixamorig:LeftArm/mixamorig:LeftForeArm
    688219669: mixamorig:Hips/mixamorig:RightUpLeg/mixamorig:RightLeg/mixamorig:RightFoot/mixamorig:RightToeBase/mixamorig:RightToe_End
    1661316941: mixamorig:Hips/mixamorig:Spine/mixamorig:Spine1/mixamorig:Spine2/mixamorig:LeftShoulder/mixamorig:LeftArm
    3401273687: mixamorig:Hips/mixamorig:LeftUpLeg/mixamorig:LeftLeg/mixamorig:LeftFoot/mixamorig:LeftToeBase/mixamorig:LeftToe_End
    2257317975: mixamorig:Hips
    1247441380: mixamorig:Hips/mixamorig:Spine/mixamorig:Spine1/mixamorig:Spine2/mixamorig:LeftShoulder
    978753383: mixamorig:Hips/mixamorig:LeftUpLeg/mixamorig:LeftLeg
    1256943279: mixamorig:Hips/mixamorig:Spine/mixamorig:Spine1/mixamorig:Spine2/mixamorig:RightShoulder/mixamorig:RightArm/mixamorig:RightForeArm/mixamorig:RightHand/mixamorig:RightHandIndex1/mixamorig:RightHandIndex2/mixamorig:RightHandIndex3
    4243345120: mixamorig:Hips/mixamorig:Spine/mixamorig:Spine1/mixamorig:Spine2/mixamorig:LeftShoulder/mixamorig:LeftArm/mixamorig:LeftForeArm/mixamorig:LeftHand
    3817294574: mixamorig:Hips/mixamorig:Spine/mixamorig:Spine1/mixamorig:Spine2/mixamorig:LeftShoulder/mixamorig:LeftArm/mixamorig:LeftForeArm/mixamorig:LeftHand/mixamorig:LeftHandIndex1/mixamorig:LeftHandIndex2
    2758719232: mixamorig:Hips/mixamorig:Spine/mixamorig:Spine1/mixamorig:Spine2
    1493459196: mixamorig:Hips/mixamorig:Spine/mixamorig:Spine1/mixamorig:Spine2/mixamorig:Neck/mixamorig:Head
    2429296262: Cube
    3159457673: mixamorig:Hips/mixamorig:Spine/mixamorig:Spine1/mixamorig:Spine2/mixamorig:RightShoulder/mixamorig:RightArm/mixamorig:RightForeArm
    1707731978: mixamorig:Hips/mixamorig:Spine/mixamorig:Spine1/mixamorig:Spine2/mixamorig:Neck/mixamorig:Head/mixamorig:HeadTop_End
    2553124480: mixamorig:Hips/mixamorig:Spine/mixamorig:Spine1/mixamorig:Spine2/mixamorig:RightShoulder/mixamorig:RightArm/mixamorig:RightForeArm/mixamorig:RightHand/mixamorig:RightHandIndex1
    1453815488: mixamorig:Hips/mixamorig:RightUpLeg/mixamorig:RightLeg/mixamorig:RightFoot
    1664857788: mixamorig:Hips/mixamorig:Spine/mixamorig:Spine1/mixamorig:Spine2/mixamorig:RightShoulder/mixamorig:RightArm/mixamorig:RightForeArm/mixamorig:RightHand/mixamorig:RightHandIndex1/mixamorig:RightHandIndex2
    43917271: mixamorig:Hips/mixamorig:LeftUpLeg/mixamorig:LeftLeg/mixamorig:LeftFoot
    0: 
    3234942999: mixamorig:Hips/mixamorig:Spine/mixamorig:Spine1/mixamorig:Spine2/mixamorig:Neck
    1535726681: mixamorig:Hips/mixamorig:LeftUpLeg
    966813807: mixamorig:Hips/mixamorig:Spine/mixamorig:Spine1/mixamorig:Spine2/mixamorig:RightShoulder/mixamorig:RightArm
    188368047: mixamorig:Hips/mixamorig:Spine/mixamorig:Spine1/mixamorig:Spine2/mixamorig:LeftShoulder/mixamorig:LeftArm/mixamorig:LeftForeArm/mixamorig:LeftHand/mixamorig:LeftHandIndex1
    769031542: mixamorig:Hips/mixamorig:Spine/mixamorig:Spine1
    3661226250: mixamorig:Hips/mixamorig:RightUpLeg
    2866508787: Light
    2299221583: mixamorig:Hips/mixamorig:Spine/mixamorig:Spine1/mixamorig:Spine2/mixamorig:RightShoulder
    880086333: mixamorig:Hips/mixamorig:LeftUpLeg/mixamorig:LeftLeg/mixamorig:LeftFoot/mixamorig:LeftToeBase
    2538846269: mixamorig:Hips/mixamorig:RightUpLeg/mixamorig:RightLeg
    1672513175: mixamorig:Hips/mixamorig:Spine/mixamorig:Spine1/mixamorig:Spine2/mixamorig:RightShoulder/mixamorig:RightArm/mixamorig:RightForeArm/mixamorig:RightHand/mixamorig:RightHandIndex1/mixamorig:RightHandIndex2/mixamorig:RightHandIndex3/mixamorig:RightHandIndex4
    3756728238: mixamorig:Hips/mixamorig:Spine
    3489429887: mixamorig:Hips/mixamorig:Spine/mixamorig:Spine1/mixamorig:Spine2/mixamorig:LeftShoulder/mixamorig:LeftArm/mixamorig:LeftForeArm/mixamorig:LeftHand/mixamorig:LeftHandIndex1/mixamorig:LeftHandIndex2/mixamorig:LeftHandIndex3
    1689694167: mixamorig:Hips/mixamorig:Spine/mixamorig:Spine1/mixamorig:Spine2/mixamorig:RightShoulder/mixamorig:RightArm/mixamorig:RightForeArm/mixamorig:RightHand
    1018227507: Camera
  m_HumanDescription:
    serializedVersion: 3
    m_Human:
    - m_BoneName: mixamorig:Hips
      m_HumanName: Hips
      m_Limit:
        m_Min: {x: 0, y: 0, z: 0}
        m_Max: {x: 0, y: 0, z: 0}
        m_Value: {x: 0, y: 0, z: 0}
        m_Length: 0
        m_Modified: 0
    - m_BoneName: mixamorig:LeftUpLeg
      m_HumanName: LeftUpperLeg
      m_Limit:
        m_Min: {x: 0, y: 0, z: 0}
        m_Max: {x: 0, y: 0, z: 0}
        m_Value: {x: 0, y: 0, z: 0}
        m_Length: 0
        m_Modified: 0
    - m_BoneName: mixamorig:RightUpLeg
      m_HumanName: RightUpperLeg
      m_Limit:
        m_Min: {x: 0, y: 0, z: 0}
        m_Max: {x: 0, y: 0, z: 0}
        m_Value: {x: 0, y: 0, z: 0}
        m_Length: 0
        m_Modified: 0
    - m_BoneName: mixamorig:LeftLeg
      m_HumanName: LeftLowerLeg
      m_Limit:
        m_Min: {x: 0, y: 0, z: 0}
        m_Max: {x: 0, y: 0, z: 0}
        m_Value: {x: 0, y: 0, z: 0}
        m_Length: 0
        m_Modified: 0
    - m_BoneName: mixamorig:RightLeg
      m_HumanName: RightLowerLeg
      m_Limit:
        m_Min: {x: 0, y: 0, z: 0}
        m_Max: {x: 0, y: 0, z: 0}
        m_Value: {x: 0, y: 0, z: 0}
        m_Length: 0
        m_Modified: 0
    - m_BoneName: mixamorig:LeftFoot
      m_HumanName: LeftFoot
      m_Limit:
        m_Min: {x: 0, y: 0, z: 0}
        m_Max: {x: 0, y: 0, z: 0}
        m_Value: {x: 0, y: 0, z: 0}
        m_Length: 0
        m_Modified: 0
    - m_BoneName: mixamorig:RightFoot
      m_HumanName: RightFoot
      m_Limit:
        m_Min: {x: 0, y: 0, z: 0}
        m_Max: {x: 0, y: 0, z: 0}
        m_Value: {x: 0, y: 0, z: 0}
        m_Length: 0
        m_Modified: 0
    - m_BoneName: mixamorig:Spine
      m_HumanName: Spine
      m_Limit:
        m_Min: {x: 0, y: 0, z: 0}
        m_Max: {x: 0, y: 0, z: 0}
        m_Value: {x: 0, y: 0, z: 0}
        m_Length: 0
        m_Modified: 0
    - m_BoneName: mixamorig:Spine1
      m_HumanName: Chest
      m_Limit:
        m_Min: {x: 0, y: 0, z: 0}
        m_Max: {x: 0, y: 0, z: 0}
        m_Value: {x: 0, y: 0, z: 0}
        m_Length: 0
        m_Modified: 0
    - m_BoneName: mixamorig:Neck
      m_HumanName: Neck
      m_Limit:
        m_Min: {x: 0, y: 0, z: 0}
        m_Max: {x: 0, y: 0, z: 0}
        m_Value: {x: 0, y: 0, z: 0}
        m_Length: 0
        m_Modified: 0
    - m_BoneName: mixamorig:Head
      m_HumanName: Head
      m_Limit:
        m_Min: {x: 0, y: 0, z: 0}
        m_Max: {x: 0, y: 0, z: 0}
        m_Value: {x: 0, y: 0, z: 0}
        m_Length: 0
        m_Modified: 0
    - m_BoneName: mixamorig:LeftShoulder
      m_HumanName: LeftShoulder
      m_Limit:
        m_Min: {x: 0, y: 0, z: 0}
        m_Max: {x: 0, y: 0, z: 0}
        m_Value: {x: 0, y: 0, z: 0}
        m_Length: 0
        m_Modified: 0
    - m_BoneName: mixamorig:RightShoulder
      m_HumanName: RightShoulder
      m_Limit:
        m_Min: {x: 0, y: 0, z: 0}
        m_Max: {x: 0, y: 0, z: 0}
        m_Value: {x: 0, y: 0, z: 0}
        m_Length: 0
        m_Modified: 0
    - m_BoneName: mixamorig:LeftArm
      m_HumanName: LeftUpperArm
      m_Limit:
        m_Min: {x: 0, y: 0, z: 0}
        m_Max: {x: 0, y: 0, z: 0}
        m_Value: {x: 0, y: 0, z: 0}
        m_Length: 0
        m_Modified: 0
    - m_BoneName: mixamorig:RightArm
      m_HumanName: RightUpperArm
      m_Limit:
        m_Min: {x: 0, y: 0, z: 0}
        m_Max: {x: 0, y: 0, z: 0}
        m_Value: {x: 0, y: 0, z: 0}
        m_Length: 0
        m_Modified: 0
    - m_BoneName: mixamorig:LeftForeArm
      m_HumanName: LeftLowerArm
      m_Limit:
        m_Min: {x: 0, y: 0, z: 0}
        m_Max: {x: 0, y: 0, z: 0}
        m_Value: {x: 0, y: 0, z: 0}
        m_Length: 0
        m_Modified: 0
    - m_BoneName: mixamorig:RightForeArm
      m_HumanName: RightLowerArm
      m_Limit:
        m_Min: {x: 0, y: 0, z: 0}
        m_Max: {x: 0, y: 0, z: 0}
        m_Value: {x: 0, y: 0, z: 0}
        m_Length: 0
        m_Modified: 0
    - m_BoneName: mixamorig:LeftHand
      m_HumanName: LeftHand
      m_Limit:
        m_Min: {x: 0, y: 0, z: 0}
        m_Max: {x: 0, y: 0, z: 0}
        m_Value: {x: 0, y: 0, z: 0}
        m_Length: 0
        m_Modified: 0
    - m_BoneName: mixamorig:RightHand
      m_HumanName: RightHand
      m_Limit:
        m_Min: {x: 0, y: 0, z: 0}
        m_Max: {x: 0, y: 0, z: 0}
        m_Value: {x: 0, y: 0, z: 0}
        m_Length: 0
        m_Modified: 0
    - m_BoneName: mixamorig:LeftToeBase
      m_HumanName: LeftToes
      m_Limit:
        m_Min: {x: 0, y: 0, z: 0}
        m_Max: {x: 0, y: 0, z: 0}
        m_Value: {x: 0, y: 0, z: 0}
        m_Length: 0
        m_Modified: 0
    - m_BoneName: mixamorig:RightToeBase
      m_HumanName: RightToes
      m_Limit:
        m_Min: {x: 0, y: 0, z: 0}
        m_Max: {x: 0, y: 0, z: 0}
        m_Value: {x: 0, y: 0, z: 0}
        m_Length: 0
        m_Modified: 0
    - m_BoneName: mixamorig:LeftHandIndex1
      m_HumanName: Left Index Proximal
      m_Limit:
        m_Min: {x: 0, y: 0, z: 0}
        m_Max: {x: 0, y: 0, z: 0}
        m_Value: {x: 0, y: 0, z: 0}
        m_Length: 0
        m_Modified: 0
    - m_BoneName: mixamorig:LeftHandIndex2
      m_HumanName: Left Index Intermediate
      m_Limit:
        m_Min: {x: 0, y: 0, z: 0}
        m_Max: {x: 0, y: 0, z: 0}
        m_Value: {x: 0, y: 0, z: 0}
        m_Length: 0
        m_Modified: 0
    - m_BoneName: mixamorig:LeftHandIndex3
      m_HumanName: Left Index Distal
      m_Limit:
        m_Min: {x: 0, y: 0, z: 0}
        m_Max: {x: 0, y: 0, z: 0}
        m_Value: {x: 0, y: 0, z: 0}
        m_Length: 0
        m_Modified: 0
    - m_BoneName: mixamorig:RightHandIndex1
      m_HumanName: Right Index Proximal
      m_Limit:
        m_Min: {x: 0, y: 0, z: 0}
        m_Max: {x: 0, y: 0, z: 0}
        m_Value: {x: 0, y: 0, z: 0}
        m_Length: 0
        m_Modified: 0
    - m_BoneName: mixamorig:RightHandIndex2
      m_HumanName: Right Index Intermediate
      m_Limit:
        m_Min: {x: 0, y: 0, z: 0}
        m_Max: {x: 0, y: 0, z: 0}
        m_Value: {x: 0, y: 0, z: 0}
        m_Length: 0
        m_Modified: 0
    - m_BoneName: mixamorig:RightHandIndex3
      m_HumanName: Right Index Distal
      m_Limit:
        m_Min: {x: 0, y: 0, z: 0}
        m_Max: {x: 0, y: 0, z: 0}
        m_Value: {x: 0, y: 0, z: 0}
        m_Length: 0
        m_Modified: 0
    - m_BoneName: mixamorig:Spine2
      m_HumanName: UpperChest
      m_Limit:
        m_Min: {x: 0, y: 0, z: 0}
        m_Max: {x: 0, y: 0, z: 0}
        m_Value: {x: 0, y: 0, z: 0}
        m_Length: 0
        m_Modified: 0
    m_Skeleton:
    - m_Name: Firing Rifle(Clone)
      m_ParentName: 
      m_Position: {x: 0, y: 0, z: 0}
      m_Rotation: {x: 0, y: 0, z: 0, w: 1}
      m_Scale: {x: 1, y: 1, z: 1}
    - m_Name: Cube
      m_ParentName: Firing Rifle(Clone)
      m_Position: {x: -0, y: 15, z: 0}
      m_Rotation: {x: 0, y: -0, z: -0, w: 1}
      m_Scale: {x: 1, y: 1, z: 1}
    - m_Name: Light
      m_ParentName: Firing Rifle(Clone)
      m_Position: {x: -4.0762453, y: 5.903862, z: -1.005454}
      m_Rotation: {x: 0.52327543, y: -0.34203392, z: 0.72694236, w: 0.28416622}
      m_Scale: {x: 100.00001, y: 100, z: 100}
    - m_Name: Camera
      m_ParentName: Firing Rifle(Clone)
      m_Position: {x: -7.3588915, y: 4.958309, z: 6.925791}
      m_Rotation: {x: 0.09062847, y: 0.89379627, z: -0.20997298, w: 0.3857799}
      m_Scale: {x: 100, y: 100.00001, z: 99.99999}
    - m_Name: mixamorig:Hips
      m_ParentName: Firing Rifle(Clone)
      m_Position: {x: 0.0014045644, y: 9.877389, z: 0.0068949363}
      m_Rotation: {x: 0.00000001746228, y: -0.0014506618, z: 2.533189e-11, w: 0.999999}
      m_Scale: {x: 1, y: 1, z: 0.9999999}
    - m_Name: mixamorig:LeftUpLeg
      m_ParentName: mixamorig:Hips
      m_Position: {x: -0.7715984, y: -0.5036102, z: -0.044726983}
      m_Rotation: {x: -0.0003197081, y: 0.0153516345, z: 0.99966526, w: 0.020823264}
      m_Scale: {x: 0.99999976, y: 1, z: 1.0000001}
    - m_Name: mixamorig:LeftLeg
      m_ParentName: mixamorig:LeftUpLeg
      m_Position: {x: -0.0000000071876953, y: 4.158122, z: 0.0000000029460363}
      m_Rotation: {x: -0.020733321, y: -0.00044074806, z: 0.02124836, w: 0.99955916}
      m_Scale: {x: 1.0000005, y: 1.0000005, z: 1}
    - m_Name: mixamorig:LeftFoot
      m_ParentName: mixamorig:LeftLeg
      m_Position: {x: -2.4283636e-10, y: 4.185666, z: -0.000000002283389}
      m_Rotation: {x: -0.5501876, y: -0.0022297867, z: 0.001469151, w: -0.8350369}
      m_Scale: {x: 1.0000004, y: 1, z: 1.0000001}
    - m_Name: mixamorig:LeftToeBase
      m_ParentName: mixamorig:LeftFoot
      m_Position: {x: 1.0770677e-10, y: 1.8859441, z: -0.000000032232986}
      m_Rotation: {x: 0.20233524, y: 0.0007426267, z: 0.0035943387, w: 0.97930944}
      m_Scale: {x: 1.0000004, y: 1.0000005, z: 1.0000001}
    - m_Name: mixamorig:LeftToe_End
      m_ParentName: mixamorig:LeftToeBase
      m_Position: {x: -1.3892531e-12, y: 0.7265595, z: 1.19975e-10}
      m_Rotation: {x: 0, y: -0, z: -0, w: 1}
      m_Scale: {x: 1, y: 1, z: 1}
    - m_Name: mixamorig:RightUpLeg
      m_ParentName: mixamorig:Hips
      m_Position: {x: 0.7715984, y: -0.5036102, z: -0.056983583}
      m_Rotation: {x: 0.00035246732, y: 0.016921781, z: 0.99964, w: -0.020820634}
      m_Scale: {x: 0.9999997, y: 0.9999999, z: 1.0000001}
    - m_Name: mixamorig:RightLeg
      m_ParentName: mixamorig:RightUpLeg
      m_Position: {x: 0.000000010116466, y: 4.158543, z: -0.000000009572854}
      m_Rotation: {x: -0.013804697, y: 0.0002933288, z: -0.021248635, w: 0.9996789}
      m_Scale: {x: 1.0000004, y: 1.0000001, z: 0.99999976}
    - m_Name: mixamorig:RightFoot
      m_ParentName: mixamorig:RightLeg
      m_Position: {x: 5.8304295e-12, y: 4.1855073, z: 0.0000000015316627}
      m_Rotation: {x: -0.53528136, y: 0.0023878177, z: -0.0015132339, w: -0.8446691}
      m_Scale: {x: 1.0000001, y: 1.0000004, z: 1.0000002}
    - m_Name: mixamorig:RightToeBase
      m_ParentName: mixamorig:RightFoot
      m_Position: {x: 5.15584e-12, y: 1.8104974, z: -0.000000004384243}
      m_Rotation: {x: 0.21140338, y: 0.0083398335, z: -0.0018038714, w: 0.9773617}
      m_Scale: {x: 1.0000001, y: 0.9999999, z: 1}
    - m_Name: mixamorig:RightToe_End
      m_ParentName: mixamorig:RightToeBase
      m_Position: {x: -3.2464413e-11, y: 0.725128, z: 1.331189e-10}
      m_Rotation: {x: 0, y: -0, z: -0, w: 1}
      m_Scale: {x: 1, y: 1, z: 1}
    - m_Name: mixamorig:Spine
      m_ParentName: mixamorig:Hips
      m_Position: {x: -0, y: 0.9080713, z: -0.06552449}
      m_Rotation: {x: -0.036008753, y: 0.000000069803896, z: 0.0000000025151798, w: 0.9993515}
      m_Scale: {x: 1, y: 1, z: 1.0000002}
    - m_Name: mixamorig:Spine1
      m_ParentName: mixamorig:Spine
      m_Position: {x: -0, y: 1.0621709, z: 0.0000000038376573}
      m_Rotation: {x: -0.000000026077032, y: 0.000000023432149, z: -0.0000000012271351, w: 1}
      m_Scale: {x: 1, y: 1, z: 1.0000001}
    - m_Name: mixamorig:Spine2
      m_ParentName: mixamorig:Spine1
      m_Position: {x: -0, y: 1.2139096, z: 0.0000000010624971}
      m_Rotation: {x: 0.000000011175872, y: 0.0000000014662422, z: -0.000000020319854, w: 1}
      m_Scale: {x: 1, y: 1.0000002, z: 1}
    - m_Name: mixamorig:Neck
      m_ParentName: mixamorig:Spine2
      m_Position: {x: -0, y: 1.3656483, z: 0.00000004281036}
      m_Rotation: {x: 0.03600876, y: -0.000000024944757, z: 0.00000004569754, w: 0.9993515}
      m_Scale: {x: 1, y: 0.9999999, z: 1}
    - m_Name: mixamorig:Head
      m_ParentName: mixamorig:Neck
      m_Position: {x: -0, y: 0.8282495, z: 0.028421754}
      m_Rotation: {x: -0.000000022351742, y: -1.7763568e-15, z: -0.000000029103834, w: 1}
      m_Scale: {x: 1, y: 1, z: 1}
    - m_Name: mixamorig:HeadTop_End
      m_ParentName: mixamorig:Head
      m_Position: {x: -0, y: 2.0201683, z: 0.06932297}
      m_Rotation: {x: 0, y: -0, z: -0, w: 1}
      m_Scale: {x: 1, y: 1, z: 1}
    - m_Name: mixamorig:LeftShoulder
      m_ParentName: mixamorig:Spine2
      m_Position: {x: -0.5810954, y: 1.180838, z: -0.014602381}
      m_Rotation: {x: 0.56226367, y: -0.42436945, z: 0.57638764, w: 0.41418275}
      m_Scale: {x: 1.0000002, y: 1.0000004, z: 1.0000004}
    - m_Name: mixamorig:LeftArm
      m_ParentName: mixamorig:LeftShoulder
      m_Position: {x: -0.0000000010606653, y: 1.247009, z: 0.0000000117980266}
      m_Rotation: {x: -0.12655352, y: 0.00009252131, z: -0.0007247329, w: 0.9919596}
      m_Scale: {x: 1.0000004, y: 1.0000006, z: 1.0000002}
    - m_Name: mixamorig:LeftForeArm
      m_ParentName: mixamorig:LeftArm
      m_Position: {x: -0.0000000038794754, y: 3.7713275, z: 0.000000006699056}
      m_Rotation: {x: -0.043347552, y: 0.00019247123, z: -0.004437493, w: 0.99905026}
      m_Scale: {x: 1.0000005, y: 0.9999998, z: 1.0000006}
    - m_Name: mixamorig:LeftHand
      m_ParentName: mixamorig:LeftForeArm
      m_Position: {x: -9.256008e-10, y: 2.099938, z: -0.0000000015794398}
      m_Rotation: {x: 0.35417962, y: 0.60763603, z: -0.34682426, w: 0.62052256}
      m_Scale: {x: 1, y: 1, z: 1.0000005}
    - m_Name: mixamorig:LeftHandIndex1
      m_ParentName: mixamorig:LeftHand
      m_Position: {x: -0.0000000017745878, y: 0.4171813, z: -0.0000000018509047}
      m_Rotation: {x: -0.001619398, y: -0.9983419, z: 0.044826627, w: -0.036076237}
      m_Scale: {x: 1.0000004, y: 0.9999998, z: 1.000001}
    - m_Name: mixamorig:LeftHandIndex2
      m_ParentName: mixamorig:LeftHandIndex1
      m_Position: {x: 0.0000000012642454, y: 0.515492, z: 0.0000000063226513}
      m_Rotation: {x: 0.2645945, y: 0.00000014901153, z: 0.037295118, w: 0.96363837}
      m_Scale: {x: 0.9999997, y: 1.0000004, z: 1}
    - m_Name: mixamorig:LeftHandIndex3
      m_ParentName: mixamorig:LeftHandIndex2
      m_Position: {x: 0.059640333, y: 0.627638, z: -0.4231338}
      m_Rotation: {x: 0.11820363, y: 0.03245078, z: 0.0647952, w: 0.9903416}
      m_Scale: {x: 0.9999998, y: 1, z: 0.9999996}
    - m_Name: mixamorig:LeftHandIndex4
      m_ParentName: mixamorig:LeftHandIndex3
      m_Position: {x: 0.11427973, y: 0.2754557, z: -0.34643325}
      m_Rotation: {x: 0, y: -0, z: -0, w: 1}
      m_Scale: {x: 1, y: 1, z: 1}
    - m_Name: mixamorig:RightShoulder
      m_ParentName: mixamorig:Spine2
      m_Position: {x: 0.5810954, y: 1.1806561, z: -0.012081726}
      m_Rotation: {x: -0.56355876, y: -0.42341384, z: 0.57524824, w: -0.41498408}
      m_Scale: {x: 1.0000001, y: 1.0000001, z: 1}
    - m_Name: mixamorig:RightArm
      m_ParentName: mixamorig:RightShoulder
      m_Position: {x: 9.753437e-10, y: 1.247009, z: 0.000000011804654}
      m_Rotation: {x: -0.12671642, y: 0.0002057105, z: -0.0016103385, w: 0.99193764}
      m_Scale: {x: 1.0000002, y: 1.0000004, z: 1.0000005}
    - m_Name: mixamorig:RightForeArm
      m_ParentName: mixamorig:RightArm
      m_Position: {x: 5.0057264e-10, y: 3.771352, z: 0.0000000019758386}
      m_Rotation: {x: 0.04343746, y: 0.00013885114, z: -0.0031932704, w: -0.9990511}
      m_Scale: {x: 1.0000005, y: 1.0000002, z: 1.0000004}
    - m_Name: mixamorig:RightHand
      m_ParentName: mixamorig:RightForeArm
      m_Position: {x: 0.0000000013399074, y: 2.100041, z: -0.0000000031645049}
      m_Rotation: {x: 0.3733856, y: -0.7286103, z: 0.27737075, w: 0.5027682}
      m_Scale: {x: 1.0000002, y: 1.0000002, z: 1.0000005}
    - m_Name: mixamorig:RightHandIndex1
      m_ParentName: mixamorig:RightHand
      m_Position: {x: 0.000000005825361, y: 0.39917132, z: 0.0000000065299295}
      m_Rotation: {x: 0.00073248113, y: -0.9987724, z: 0.0470263, w: 0.015549712}
      m_Scale: {x: 0.9999997, y: 0.9999997, z: 1.0000001}
    - m_Name: mixamorig:RightHandIndex2
      m_ParentName: mixamorig:RightHandIndex1
      m_Position: {x: 0.000000007367023, y: 0.531544, z: 0.000000015385181}
      m_Rotation: {x: 0.23099792, y: 0.000000007450576, z: -0.016003342, w: 0.9728226}
      m_Scale: {x: 0.9999998, y: 1.0000002, z: 0.99999994}
    - m_Name: mixamorig:RightHandIndex3
      m_ParentName: mixamorig:RightHandIndex2
      m_Position: {x: -0.025650607, y: 0.63675946, z: -0.3702702}
      m_Rotation: {x: 0.018428912, y: -0.020436106, z: -0.036421027, w: 0.99895763}
      m_Scale: {x: 0.99999994, y: 1, z: 1.0000002}
    - m_Name: mixamorig:RightHandIndex4
      m_ParentName: mixamorig:RightHandIndex3
      m_Position: {x: -0.08934334, y: 0.38394675, z: -0.26064053}
      m_Rotation: {x: 0, y: -0, z: -0, w: 1}
      m_Scale: {x: 1, y: 1, z: 1}
    m_ArmTwist: 0.5
    m_ForeArmTwist: 0.5
    m_UpperLegTwist: 0.5
    m_LegTwist: 0.5
    m_ArmStretch: 0.05
    m_LegStretch: 0.05
    m_FeetSpacing: 0
    m_GlobalScale: 1
    m_RootMotionBoneName: 
    m_HasTranslationDoF: 0
    m_HasExtraRoot: 1
    m_SkeletonHasParents: 1
